<?xml version="1.0" encoding="UTF-8" standalone="no"?>
<svg
   xmlns:dc="http://purl.org/dc/elements/1.1/"
   xmlns:cc="http://creativecommons.org/ns#"
   xmlns:rdf="http://www.w3.org/1999/02/22-rdf-syntax-ns#"
   xmlns:svg="http://www.w3.org/2000/svg"
   xmlns="http://www.w3.org/2000/svg"
   xmlns:sodipodi="http://sodipodi.sourceforge.net/DTD/sodipodi-0.dtd"
   xmlns:inkscape="http://www.inkscape.org/namespaces/inkscape"
   width="1792"
   height="1792"
   viewBox="0 0 1792 1792"
   id="svg4184"
   version="1.1"
   inkscape:version="0.91 r13725"
   sodipodi:docname="logo.svg"
   inkscape:export-filename="/home/jakob/Git/kb-autoflash/logo.svg.png"
   inkscape:export-xdpi="7.499999"
   inkscape:export-ydpi="7.499999">
  <metadata
     id="metadata4192">
    <rdf:RDF>
      <cc:Work
         rdf:about="">
        <dc:format>image/svg+xml</dc:format>
        <dc:type
           rdf:resource="http://purl.org/dc/dcmitype/StillImage" />
        <dc:title></dc:title>
      </cc:Work>
    </rdf:RDF>
  </metadata>
  <defs
     id="defs4190" />
  <sodipodi:namedview
     pagecolor="#202020"
     bordercolor="#666666"
     borderopacity="1"
     objecttolerance="10000"
     gridtolerance="10"
     guidetolerance="10"
     inkscape:pageopacity="0"
     inkscape:pageshadow="2"
     inkscape:window-width="1301"
     inkscape:window-height="719"
     id="namedview4188"
     showgrid="false"
     showborder="false"
     inkscape:snap-path-clip="true"
     inkscape:snap-path-mask="true"
     inkscape:snap-perpendicular="true"
     inkscape:snap-tangential="true"
     inkscape:zoom="0.25"
     inkscape:cx="2191.31"
     inkscape:cy="973.34088"
     inkscape:window-x="0"
     inkscape:window-y="24"
     inkscape:window-maximized="1"
     inkscape:current-layer="svg4184" />
  <path
     d="M649 983l-466 466q-10 10-23 10t-23-10l-50-50q-10-10-10-23t10-23l393-393-393-393q-10-10-10-23t10-23l50-50q10-10 23-10t23 10l466 466q10 10 10 23t-10 23zm1079 457v64q0 14-9 23t-23 9h-960q-14 0-23-9t-9-23v-64q0-14 9-23t23-9h960q14 0 23 9t9 23z"
     fill="#fff"
     id="path4186" />
  <path
     id="path4792"
     d="m 1627.9605,1168.082 0,96 q 0,16 -16,16 l -96,0 q -16,0 -16,-16 l 0,-96 q 0,-16 16,-16 l 96,0 q 16,0 16,16 z m 128,-256.00011 0,96.00011 q 0,16 -16,16 l -224,0 q -16,0 -16,-16 l 0,-96.00011 q 0,-16.00002 16,-16.00002 l 224,0 q 16,0 16,16.00002 z m -128,-256.00002 0,96 q 0,16 -16,16 l -96,0 q -16,0 -16,-16 l 0,-96 q 0,-16 16,-16 l 96,0 q 16,0 16,16 z m 1024,512.00013 0,96 q 0,16 -16,16 l -864,0 q -16,0 -16,-16 l 0,-96 q 0,-16 16,-16 l 864,0 q 16,0 16,16 z m -640,-256.00011 0,96.00011 q 0,16 -16,16 l -96,0 q -16,0 -16,-16 l 0,-96.00011 q 0,-16.00002 16,-16.00002 l 96,0 q 16,0 16,16.00002 z m -128,-256.00002 0,96 q 0,16 -16,16 l -96,0 q -16,0 -16,-16 l 0,-96 q 0,-16 16,-16 l 96,0 q 16,0 16,16 z m 384,256.00002 0,96.00011 q 0,16 -16,16 l -96,0 q -16,0 -16,-16 l 0,-96.00011 q 0,-16.00002 16,-16.00002 l 96,0 q 16,0 16,16.00002 z m -128,-256.00002 0,96 q 0,16 -16,16 l -96,0 q -16,0 -16,-16 l 0,-96 q 0,-16 16,-16 l 96,0 q 16,0 16,16 z m 384,256.00002 0,96.00011 q 0,16 -16,16 l -96,0 q -16,0 -16,-16 l 0,-96.00011 q 0,-16.00002 16,-16.00002 l 96,0 q 16,0 16,16.00002 z m 384,256.00011 0,96 q 0,16 -16,16 l -96,0 q -16,0 -16,-16 l 0,-96 q 0,-16 16,-16 l 96,0 q 16,0 16,16 z m -512,-512.00013 0,96 q 0,16 -16,16 l -96,0 q -16,0 -16,-16 l 0,-96 q 0,-16 16,-16 l 96,0 q 16,0 16,16 z m 256,0 0,96 q 0,16 -16,16 l -96,0 q -16,0 -16,-16 l 0,-96 q 0,-16 16,-16 l 96,0 q 16,0 16,16 z m 256,0 0,352.00013 q 0,16 -16,16 l -224,0 q -16,0 -16,-16 l 0,-96.00011 q 0,-16.00002 16,-16.00002 l 112,0 0,-240 q 0,-16 16,-16 l 96,0 q 16,0 16,16 z m 128,752.00013 0,-896.00013 -1663.9999,0 0,896.00013 1663.9999,0 z m 128,-896.00013 0,896.00013 q 0,53 -37.5,90.5 -37.5,37.5 -90.5,37.5 l -1663.9999,0 q -53,0 -90.5,-37.5 -37.5,-37.5 -37.5,-90.5 l 0,-896.00013 q 0,-53 37.5,-90.5 37.5,-37.5 90.5,-37.5 l 1663.9999,0 q 53,0 90.5,37.5 37.5,37.5 37.5,90.5 z"
     inkscape:connector-curvature="0"
     style="fill:#ffffff" />
</svg>
